26

3 11
7
1 8
2 0
1 5
2 6
0 8
1 9
0 3
20 8

1 15
4
0 7
0 1
0 13
0 12
17 5

15 9
13
2 7
2 5
1 7
10 2
12 2
3 2
13 5
11 1
7 5
5 3
1 8
8 5
11 0
12 2

4 10
3
0 1
0 5
1 7
8 1

2 9
21
0 0
1 3
1 4
1 6
0 5
0 7
1 3
0 0
1 6
0 1
1 5
0 0
1 3
0 8
0 8
1 7
1 3
1 1
1 0
0 1
0 1
9 15

2 9
4
0 4
0 3
0 1
1 2
5 11

11 12
29
4 0
10 4
8 0
2 5
6 8
5 10
7 11
1 3
8 7
9 0
3 0
7 6
1 11
1 0
1 10
2 1
10 0
6 11
5 3
4 5
10 7
4 5
2 7
6 10
7 5
1 1
7 11
8 1
4 7
17 10

15 14
5
6 9
4 12
5 10
5 10
1 2
16 19

8 2
14
7 1
4 0
7 0
2 1
3 0
0 0
1 0
4 1
2 0
2 1
3 1
0 0
5 0
3 0
14 15

9 1
27
1 0
6 0
5 0
7 0
0 0
1 0
0 0
4 0
2 0
4 0
6 0
1 0
8 0
5 0
5 0
5 0
3 0
7 0
7 0
1 0
0 0
1 0
4 0
0 0
0 0
3 0
5 0
15 8

12 3
14
5 1
3 1
4 1
4 2
5 1
4 0
0 2
4 2
11 0
9 2
5 1
3 2
8 0
5 0
10 13

12 15
4
9 13
2 4
5 8
0 10
15 12

4 6
28
1 4
3 4
0 5
1 4
2 2
0 4
3 3
2 4
1 1
1 2
1 1
0 4
0 5
0 4
3 2
3 2
3 1
1 4
3 4
0 3
3 1
3 5
3 3
0 5
3 4
3 3
1 0
2 4
6 13

14 3
7
2 0
9 0
3 2
5 2
2 1
0 1
4 1
20 4

15 1
29
6 0
6 0
11 0
2 0
4 0
4 0
0 0
0 0
14 0
6 0
5 0
0 0
5 0
12 0
3 0
14 0
10 0
6 0
10 0
13 0
9 0
12 0
0 0
14 0
10 0
6 0
13 0
6 0
8 0
6 20

2 5
29
1 1
1 1
1 3
1 0
1 2
0 4
1 3
0 3
1 2
0 4
0 4
1 2
1 0
1 0
1 2
0 3
1 3
0 2
0 2
1 4
1 4
0 0
1 3
0 3
0 0
1 0
1 4
0 2
0 1
2 2

4 6
1
0 3
17 17

1 3
14
0 0
0 2
0 1
0 0
0 0
0 2
0 0
0 2
0 2
0 2
0 2
0 1
0 1
0 0
15 1

2 11
17
0 7
0 3
0 1
0 3
1 3
0 0
1 3
1 1
1 7
1 0
1 4
1 4
0 0
0 3
1 5
0 9
0 7
11 12

10 13
27
5 0
2 9
4 3
9 3
1 5
1 1
3 12
1 6
4 4
9 3
1 11
2 1
6 10
6 7
2 0
2 2
1 0
1 0
9 5
4 8
4 3
4 6
6 7
6 5
7 8
7 1
5 9
6 12

12 12
2
1 3
9 10
11 15

14 4
27
13 3
3 1
12 0
8 1
0 1
9 1
0 3
0 0
9 2
13 2
1 1
0 0
3 1
5 1
5 3
11 1
12 3
3 1
3 2
1 2
3 2
0 2
8 2
12 1
2 0
3 2
1 3
2 6

6 1
10
1 0
1 0
2 0
4 0
4 0
3 0
0 0
1 0
0 0
3 0
2 18

12 12
7
3 4
7 1
6 8
7 9
1 2
10 11
2 11
9 11

10 8
28
9 0
6 3
2 6
6 0
8 2
9 4
3 2
2 5
6 7
2 4
6 0
0 6
4 2
9 7
7 5
0 1
6 6
7 1
0 0
8 6
7 0
6 0
5 2
7 7
3 2
2 7
9 2
8 2
16 13

5 6
9
4 4
2 5
0 5
3 3
4 0
1 2
0 0
0 2
4 5
2 2
