27

1 1
20
0 0
0 0
0 0
0 0
0 0
0 0
0 0
0 0
0 0
0 0
0 0
0 0
0 0
0 0
0 0
0 0
0 0
0 0
0 0
0 0
79 135

17 12
8
0 10
15 2
12 7
5 5
11 8
7 8
4 6
6 6
363 154

8 14
7
3 13
7 0
5 10
6 8
2 8
2 5
7 9
217 154

7 13
14
1 12
2 5
6 3
4 11
3 12
1 0
4 0
5 5
4 6
1 11
1 10
2 10
1 7
1 10
330 128

18 10
13
3 6
12 0
5 8
8 9
12 2
16 8
10 4
11 3
6 5
12 7
0 5
2 5
5 7
320 108

20 14
20
8 7
7 0
13 7
5 6
9 0
6 11
9 10
12 7
15 8
19 7
16 2
6 5
11 13
18 5
18 9
8 5
19 10
10 11
3 0
8 6
145 171

5 8
12
2 6
4 4
4 5
0 4
2 6
0 5
3 1
0 3
3 2
3 7
2 5
3 7
392 74

20 20
19
1 17
7 10
3 19
18 4
1 3
14 16
4 3
5 14
2 0
17 8
12 9
7 18
13 6
2 17
15 2
16 15
12 3
18 9
6 13
235 94

6 1
8
2 0
2 0
2 0
3 0
0 0
1 0
5 0
3 0
187 42

5 9
6
4 7
0 0
1 5
1 8
0 5
0 5
250 59

8 6
16
7 2
1 2
2 1
3 3
3 2
4 0
1 1
3 2
5 4
0 5
7 3
2 1
1 1
6 2
0 5
2 0
356 86

8 9
12
0 1
0 5
3 2
3 3
0 6
1 4
1 3
2 4
6 5
6 7
0 0
5 2
154 64

14 19
17
11 14
13 9
12 2
10 2
13 3
7 8
11 16
2 12
8 8
10 10
0 2
2 12
1 6
0 9
4 14
3 3
13 4
48 3

7 14
5
3 2
0 0
3 4
5 0
2 8
53 72

13 3
9
12 0
7 2
10 1
0 0
12 2
12 1
6 1
3 2
8 1
208 101

15 15
13
4 13
2 2
11 10
3 0
8 11
9 1
4 13
12 12
8 12
6 6
1 12
13 1
0 13
67 180

1 3
7
0 0
0 0
0 0
0 0
0 0
0 0
0 2
122 52

14 10
12
6 0
10 5
0 2
11 6
3 8
7 9
3 6
11 5
4 6
6 6
3 6
12 1
169 10

17 14
7
9 2
5 12
7 8
12 13
14 6
7 11
10 2
367 126

2 18
6
0 0
0 7
1 7
0 1
1 5
1 11
249 164

17 3
17
12 2
2 0
14 0
5 1
9 0
5 2
4 0
5 1
3 0
0 1
5 2
10 1
5 2
12 2
16 2
16 1
11 2
4 135

10 17
9
4 2
3 15
4 9
7 1
6 9
5 6
3 3
0 3
9 1
129 48

8 7
12
6 5
1 0
1 0
4 6
4 2
7 2
3 6
3 2
6 0
7 3
0 2
7 2
80 134

19 7
12
5 5
9 1
10 3
18 1
15 0
16 2
6 2
2 5
4 0
0 4
15 1
18 1
389 17

8 1
18
6 0
2 0
0 0
0 0
1 0
3 0
1 0
4 0
5 0
7 0
2 0
2 0
6 0
0 0
2 0
6 0
6 0
5 0
57 107

3 11
16
1 9
0 0
2 1
0 4
2 10
0 8
2 10
1 0
1 7
0 3
2 9
2 8
2 8
0 6
0 7
0 8
278 89

12 2
8
3 1
0 1
3 1
11 1
1 1
1 1
9 0
9 1
288 183
