29

10 16
21
0 14
1 9
2 2
7 7
9 15
8 7
7 11
2 5
9 12
4 12
6 14
0 12
8 15
3 9
8 5
4 4
0 3
5 2
2 13
0 14
9 5
29 14

17 4
9
13 0
15 0
8 2
3 2
13 1
0 3
12 2
7 3
15 2
13 11

3 9
27
1 4
2 7
1 2
0 7
1 4
1 7
0 4
2 1
1 5
1 1
0 1
1 8
1 8
1 4
1 7
1 2
2 1
0 6
2 4
2 0
2 5
0 6
1 3
1 6
2 8
0 6
2 3
15 13

6 9
1
2 6
13 13

17 3
30
12 1
9 0
12 2
7 0
2 0
6 0
11 1
16 0
14 1
5 2
9 2
15 1
15 2
10 0
12 2
2 0
13 0
10 0
6 0
9 2
7 2
14 2
14 1
4 2
0 1
4 2
7 2
16 1
2 2
8 0
30 15

13 2
29
7 1
11 1
2 0
5 1
4 1
0 0
2 1
4 0
5 1
10 0
9 1
10 0
12 1
9 0
1 1
5 1
0 1
6 0
0 0
7 0
12 1
6 0
7 1
2 1
5 0
12 0
7 1
4 0
5 0
16 9

1 12
8
0 6
0 9
0 3
0 2
0 8
0 7
0 9
0 5
24 1

17 2
7
7 0
11 1
7 0
12 1
2 1
4 0
10 1
8 3

18 1
16
3 0
16 0
3 0
1 0
5 0
1 0
15 0
7 0
9 0
2 0
15 0
15 0
2 0
13 0
6 0
10 0
29 7

20 11
17
6 9
4 9
19 5
6 6
4 6
6 0
3 9
12 3
2 2
14 1
0 1
7 7
15 5
8 4
8 2
10 3
17 8
15 13

5 13
25
2 12
2 8
1 0
3 3
3 11
2 12
2 5
1 2
3 12
4 7
3 4
1 1
3 12
3 8
4 3
2 12
3 4
4 10
4 10
4 3
2 9
4 3
2 12
3 5
2 2
27 5

12 4
24
8 1
0 1
11 3
1 0
3 3
5 1
11 0
10 2
1 1
8 2
0 3
8 2
11 1
1 2
11 2
11 3
10 0
3 1
2 3
7 2
0 1
3 0
2 0
11 3
23 11

13 11
30
10 7
8 6
9 1
10 0
6 5
9 6
6 2
12 2
5 6
10 1
9 0
7 10
0 10
5 8
3 10
0 3
10 3
12 1
10 9
5 7
3 3
11 2
11 4
9 3
4 1
12 9
10 0
3 5
12 3
12 4
29 10

2 5
8
0 0
1 1
1 3
0 0
1 1
0 3
1 2
0 3
20 7

12 4
7
2 0
11 3
10 2
10 2
9 3
5 3
9 2
14 5

19 13
6
18 9
9 9
16 2
1 0
2 7
5 2
27 15

16 4
2
12 1
12 0
14 2

14 5
24
4 2
0 4
8 3
12 1
5 4
0 0
11 2
12 3
11 4
5 3
1 3
7 4
12 3
5 3
7 4
5 1
9 3
4 2
5 2
4 1
0 3
1 1
9 4
0 2
9 13

1 20
6
0 15
0 8
0 0
0 14
0 10
0 16
22 12

13 15
16
1 3
10 5
2 1
7 7
6 4
7 13
8 8
11 11
12 13
7 11
1 6
11 3
0 14
9 4
6 4
5 14
9 7

15 18
20
0 8
2 15
1 2
4 5
6 9
0 9
5 13
5 15
10 0
10 4
6 10
1 15
13 13
10 9
6 2
14 3
0 2
8 9
13 13
2 12
3 11

17 9
12
10 3
12 4
5 7
9 7
4 0
2 0
16 1
11 8
6 6
14 3
11 1
1 3
24 14

20 16
28
16 3
0 2
0 10
12 2
3 3
18 15
4 8
8 3
1 0
10 11
11 1
10 15
8 14
9 15
3 14
0 10
18 4
13 10
6 9
9 1
6 1
2 2
18 8
6 14
16 6
14 15
8 6
6 15
1 5

20 2
29
12 1
19 0
6 1
15 1
8 0
12 1
17 1
1 0
5 1
12 0
0 0
10 1
12 0
11 1
3 1
12 0
9 0
19 1
13 0
9 0
16 0
6 1
1 1
8 0
13 1
1 0
15 1
8 0
8 0
13 13

4 19
8
3 16
1 6
2 15
2 9
2 14
3 5
2 16
2 11
28 12

12 16
9
5 4
2 10
8 7
0 10
3 3
1 6
9 0
2 12
5 15
3 13

16 11
11
12 9
0 10
1 1
13 7
14 9
2 8
13 2
15 3
5 3
1 8
14 1
2 12

6 15
7
0 3
3 8
3 0
1 1
5 3
3 9
1 8
4 3

16 3
5
4 0
12 2
9 1
14 1
7 1
21 14
