22

13 20
6
1 17
6 19
6 6
11 10
9 4
12 13
38 2

16 4
6
7 3
9 0
15 2
10 1
1 1
3 3
15 2

7 8
12
5 5
0 0
3 1
5 2
3 2
3 3
5 6
0 3
3 3
1 7
6 1
2 0
34 4

12 7
4
11 3
4 5
10 6
10 4
59 5

9 4
19
0 1
0 0
8 0
1 2
0 3
7 2
3 1
3 2
3 3
0 0
5 1
1 0
0 0
4 3
1 3
2 1
5 1
8 2
5 2
13 3

19 17
26
15 12
9 0
14 8
5 4
5 0
4 8
15 11
10 11
16 3
11 4
7 7
15 15
8 0
7 4
9 12
15 9
1 3
18 5
14 13
7 3
18 16
10 10
15 12
0 16
14 2
1 3
59 4

16 20
29
10 3
13 17
8 11
7 1
10 9
2 10
3 16
1 0
9 7
6 12
15 17
11 11
15 13
9 14
12 5
10 18
10 14
5 12
11 18
2 14
5 5
10 9
15 12
13 4
6 0
15 16
15 19
15 3
8 3
36 2

20 5
26
12 1
7 2
11 4
18 1
12 3
15 4
8 4
8 0
2 4
13 3
7 4
13 0
11 0
3 3
13 1
10 1
11 4
7 3
4 3
9 3
7 4
4 4
17 3
2 2
4 4
1 3
49 5

18 14
5
7 10
1 3
17 0
12 6
9 12
7 5

16 19
14
2 15
11 18
13 17
14 8
8 6
9 18
9 4
15 17
7 5
14 11
2 13
5 9
1 9
10 8
60 2

16 5
23
4 3
4 4
0 1
9 3
1 1
10 4
11 3
7 1
3 0
6 3
9 1
0 2
0 1
10 4
2 3
5 1
9 3
0 2
13 2
1 4
1 2
7 2
4 4
44 4

1 16
11
0 7
0 13
0 9
0 2
0 13
0 5
0 12
0 4
0 6
0 5
0 2
4 2

13 11
20
1 10
7 4
5 0
9 6
2 10
0 9
12 4
11 2
9 5
12 0
3 9
6 3
6 4
5 8
9 0
11 2
2 1
11 6
5 1
0 8
36 3

7 6
27
4 0
0 4
6 4
2 2
0 5
1 4
1 5
3 5
0 1
4 5
5 5
2 5
4 5
6 5
2 4
6 4
3 4
6 3
2 4
1 1
1 4
0 3
2 0
1 2
5 2
4 0
0 5
14 3

11 13
27
10 2
1 3
5 6
7 12
9 2
4 7
0 7
6 6
7 10
0 9
2 2
4 6
7 4
6 4
6 8
5 4
3 6
8 7
8 1
6 10
9 7
10 3
6 9
5 2
7 4
0 12
5 4
41 2

19 16
16
15 10
4 1
6 10
7 1
6 2
12 7
10 1
3 2
16 3
3 2
0 2
12 14
16 2
3 15
8 3
10 2
14 4

4 4
19
1 3
1 0
1 0
1 2
1 2
0 1
2 3
1 1
3 3
2 2
1 2
3 0
2 0
1 3
0 1
2 1
1 3
2 2
3 3
41 4

6 6
30
5 1
5 5
0 5
1 2
5 2
1 0
0 1
3 4
0 5
3 3
4 5
3 4
5 1
5 0
2 1
1 0
5 4
3 5
0 1
1 5
0 3
3 1
5 3
2 4
1 3
0 3
0 0
5 0
4 4
0 4
11 3

17 13
20
1 8
10 11
12 0
14 7
5 0
0 1
13 7
2 5
13 1
5 5
7 6
4 4
13 3
6 5
7 12
8 4
4 3
11 12
11 9
7 1
3 5

8 8
27
0 3
2 5
5 2
6 6
7 5
2 6
3 6
1 6
4 6
3 4
7 3
4 5
1 4
1 2
0 5
3 3
4 7
1 6
3 6
0 2
5 7
6 7
7 2
1 2
2 0
2 5
3 7
28 3

12 20
8
4 4
10 2
0 0
9 17
5 5
11 10
1 2
5 11
43 4

4 3
20
0 1
0 0
1 0
3 2
2 2
2 1
2 2
3 1
1 1
1 1
3 2
0 0
2 2
2 1
0 1
1 1
3 1
2 1
2 0
3 0
1 4
